…
``` r
set.seed(123)

df <- tibble(
  g = 1:100,
  x = replicate(100, runif(10), simplify = FALSE)
)

df <- group_by(df, g)

df
#> # A tibble: 100 × 2
#> # Groups:   g [100]
#>        g x         
#>    <int> <list>    
#>  1     1 <dbl [10]>
#>  2     2 <dbl [10]>
#>  3     3 <dbl [10]>
#>  4     4 <dbl [10]>
#>  5     5 <dbl [10]>
#>  6     6 <dbl [10]>
#>  7     7 <dbl [10]>
#>  8     8 <dbl [10]>
#>  9     9 <dbl [10]>
#> 10    10 <dbl [10]>
#> # ℹ 90 more rows
```

If you’d like to map over this and perform some computation on each
element of `x`, you might try and use
[`future_map_dbl()`](https://furrr.futureverse.org/reference/future_map.md),
but you’ll be surprised about how slow it can be.

``` r
plan(multisession, workers = 2)

t1 <- proc.time()

df |>
  mutate(y = future_map_dbl(x, mean))
#> # A tibble: 100 × 3
#> # Groups:   g [100]
#>        g x              y
#>    <int> <list>     <dbl>
#>  1     1 <dbl [10]> 0.578
#>  2     2 <dbl [10]> 0.523
#>  3     3 <dbl [10]> 0.616
#>  4     4 <dbl [10]> 0.538
#>  5     5 <dbl [10]> 0.345
#>  6     6 <dbl [10]> 0.433
#>  7     7 <dbl [10]> 0.554
#>  8     8 <dbl [10]> 0.425
#>  9     9 <dbl [10]> 0.559
#> 10    10 <dbl [10]> 0.415
#> # ℹ 90 more rows
…
The easy solution is to just ungroup the data frame before calling
[`future_map_dbl()`](https://furrr.futureverse.org/reference/future_map.md).

``` r
plan(multisession, workers = 2)

t1 <- proc.time()

df |>
  ungroup() |>
  mutate(y = future_map_dbl(x, mean))
#> # A tibble: 100 × 3
#>        g x              y
#>    <int> <list>     <dbl>
#>  1     1 <dbl [10]> 0.578
#>  2     2 <dbl [10]> 0.523
#>  3     3 <dbl [10]> 0.616
#>  4     4 <dbl [10]> 0.538
#>  5     5 <dbl [10]> 0.345
#>  6     6 <dbl [10]> 0.433
#>  7     7 <dbl [10]> 0.554
#>  8     8 <dbl [10]> 0.425
#>  9     9 <dbl [10]> 0.559
#> 10    10 <dbl [10]> 0.415
#> # ℹ 90 more rows
…
